name,loginurl,subforumurl,topirnumber,login,pass,advert
Ведьмак: Меньшее Зло,http://evilbastards.f-rpg.ru/login.php,http://evilbastards.f-rpg.ru/viewforum.php?id=14,1,Пьяный герольд,1111,"[align=center][url=http://evilbastards.f-rpg.ru/][img]https://i.imgur.com/kD3FS0z.png[/img][/url]
[url=http://evilbastards.f-rpg.ru/viewforum.php?id=16]Сюжет[/url] | [url=http://evilbastards.f-rpg.ru/viewtopic.php?id=64]Нужные[/url] | [url=http://evilbastards.f-rpg.ru/viewtopic.php?id=20]Гостевая[/url][/align]"
Res Integra,http://resintegra.ru/login.php,http://resintegra.ru/viewtopic.php?id=265,0,Реклама,111111,"[quote][align=center][url=http://resintegra.ru/][img]http://s018.radikal.ru/i509/1705/a2/e7d729b49e47.jpg[/img][/url]
[b][url=http://resintegra.ru/viewtopic.php?id=62]О ролевой[/url] | [url=http://resintegra.ru/viewtopic.php?id=36]История мира[/url] | [url=http://resintegra.ru/viewtopic.php?id=101]Расы[/url] | [url=http://resintegra.ru/viewforum.php?id=26]Равенстерн[/url] | [url=http://resintegra.ru/viewforum.php?id=27]Книга магии[/url][/b][/align][/quote]"
Doctor Who: Night Terror,http://docnight.rusff.ru/login.php,http://docnight.rusff.ru/viewtopic.php?id=2790,1,PR,1111,"[quote][align=center][url=http://docnight.rusff.ru/][size=16]DOCTOR WHO: Night Terror[/size][/url][/align]
[align=center][url=http://docnight.rusff.ru/viewtopic.php?id=1679][img]https://b.radikal.ru/b03/1809/b9/be3cbb2fc09f.png[/img][/url][/align][/quote]"
Каинвилль,http://caineville.6bb.ru/login.php,http://caineville.6bb.ru/viewforum.php?id=22,2,Реклама,0000,"[align=center][b]|Авторский мир|Альтернативная реальность|Мистика|Городское фэнтези|НФ|[/b]
[b]2021 год | NC-21[/b][/align]
[table layout=fixed width=100%]
[tr]
[td][align=center][url=http://caineville.6bb.ru/][img]https://i.imgur.com/X9lRjPW.png[/img][/url][/align]
«[size=18][b]Л[/b][/size]юблю», как оказалось, бывает разным. Так запросто, почти залихватски, как подкрученный ус, являлось оно в исполнении Шуко направо и налево. Вот тебе «люблю!» и тебе! А тебя уж вообще сил нет как. Безоглядное, бесстыжее, как секундная пошлость с человеком, которого больше никогда не встретишь. Если у кого-то было на это слово табу, то у него – до крайности наоборот. Он заверял всех в своей искренней любви, едва рубашку на себе не рвал. Иной раз чуть ли не до слез доводя себя и окружающих. Стоит ли говорить, что ценность этого слова почти отсутствовала?
Пока рядом не оказалась Карла.

[align=center] [url=http://caineville.6bb.ru/]Каинвилль 2018[/url] [/align]

[align=center][url=http://caineville.6bb.ru/viewtopic.php?id=96][img]https://lh3.googleusercontent.com/-LkfkqB4gfjY/Vu1LjyUYW5I/AAAAAAAADS4/RU-o5nkeA7EFK2J3SQSVLoDeD3yRy1ylwCCo/s80-Ic42/7141114b2f2b8c21e3be8ff2f192e6d9.png[/img][/url] [url=http://caineville.6bb.ru/viewtopic.php?id=170][img]https://lh3.googleusercontent.com/-wiVCpuapbtM/Vu1LkN74kMI/AAAAAAAADS4/aSvSY7eeAGoeKMgyvBrdGpg_GubOj730gCCo/s80-Ic42/75324e3f3b33650ec3741ca5b4d2975e.png[/img][/url] [url=http://caineville.6bb.ru/viewtopic.php?id=94][img]https://lh3.googleusercontent.com/-Lo-AeLRim9c/Vu1LkD0iUfI/AAAAAAAADS4/-M-M0dljNysnbO7OozT-rW6IYrige-J2gCCo/s80-Ic42/9ba01fd63946de99eb0f5cb10ff2fc91.png[/img][/url] [url=http://caineville.6bb.ru/viewforum.php?id=43][img]https://lh3.googleusercontent.com/-oW0iB0648gY/Vu1LjmFaVlI/AAAAAAAADS4/mxNo5o6EcAUXH7DnG5FhDCq8CtDcBcsuACCo/s80-Ic42/0373eb359ec3c7fa19c594fa04e54f69.png[/img][/url] [url=https://vk.com/caineville][img]https://lh3.googleusercontent.com/-UXEygWigrp4/Vu1LkhJ4ziI/AAAAAAAADS4/twVIwshSKlsCuaJJL54c-WmaveWrLIYeACCo/s80-Ic42/adde6af3bf37c3c6e1c1a1485cedebb3.png[/img][/url][/align]
[/td]
[/tr]
[/table]"
Flycross,http://flycross.rusff.ru/login.php,http://flycross.rusff.ru/viewforum.php?id=14,0,air pr,1111,[quote][align=center][url=http://flycross.rusff.ru][img]http://funkyimg.com/i/2KjLr.jpg[/img][/url][/align][/quote]
Ravencourt,http://keswick.rusff.ru/login.php,http://keswick.rusff.ru/viewforum.php?id=15,1,The Raven,cawl,"[align=center][b][url=http://keswick.rusff.ru/viewforum.php?id=7][size=12]мистика • магия • духи леса • призраки[/size][/url][/b][/align]
[align=center][url=http://keswick.rusff.ru/][img]http://sd.uploads.ru/sBdoW.gif[/img][/url][/align]"
London. Jekyll & Hyde,http://jekyll.f-rpg.ru/login.php,http://jekyll.f-rpg.ru/viewforum.php?id=17,0,PR,1111,[align=center][url=http://jekyll.f-rpg.ru][img]http://sg.uploads.ru/drxKU.png[/img][/url][/align]
Jus sanguinis,http://caineville.6bb.ru/login.php,http://jusanguinis.rusff.ru/viewforum.php?id=13,1,PR,1111,[align=center][url=http://jusanguinis.rusff.ru/][img]https://i.imgur.com/LiishCd.png[/img][/url][/align]
Town under the Arch,http://jusanguinis.rusff.ru/login.php,http://jkisdead.rusff.ru/viewforum.php?id=13,1,Mass Media,1111,[align=center][url=http://jkisdead.rusff.ru/][img]http://funkyimg.com/i/2FqUh.jpg[/img][/url][/align] [align=center][b][url=http://jkisdead.rusff.ru/viewtopic.php?id=70][color=maroon]С[/color]ЮЖЕТ[/url] ◆ [url=http://jkisdead.rusff.ru/viewtopic.php?id=68][color=maroon]Р[/color]АСЫ[/url] ◆ [url=http://jkisdead.rusff.ru/viewtopic.php?id=69][color=maroon]Г[/color]ЛОССАРИЙ[/url] ◆ [url=http://jkisdead.rusff.ru/viewtopic.php?id=51][color=maroon]Р[/color]ОЛИ[/url] ◆ [url=http://jkisdead.rusff.ru/viewtopic.php?id=35]АКЦИЯ [color=maroon]1.0[/color] ТЫ МНЕ НУЖЕН[/url][/b][/align]
Кте Онор,http://kteonor.mybb.ru/login.php,http://kteonor.mybb.ru/viewforum.php?id=28,1,PR,kukushka,"[align=center][hr]
[url=http://qps.ru/01k65][img]http://s3.uploads.ru/XAywJ.png[/img][/url][/align]
[hr]

[align=center] ▶[url=http://kteonor.mybb.ru/viewtopic.php?id=39#p81][b]СЮЖЕТ[/b][/url]◀   ▶[url=http://kteonor.mybb.ru/viewtopic.php?id=13#p13][b]ПРАВИЛА[/b][/url]◀   ▶[url=http://kteonor.mybb.ru/viewtopic.php?id=3#p3][b]FAQ[/b][/url]◀   ▶[url=http://kteonor.mybb.ru/viewtopic.php?id=5#p5][b]ВОПРОСЫ[/b][/url]◀   ▶[url=http://kteonor.mybb.ru/viewforum.php?id=5][b]АКЦИИ[/b][/url]◀   ▶[url=http://kteonor.mybb.ru/viewforum.php?id=7][b]ПРИСОЕДИНИТЬСЯ[/b][/url]◀ [/align]
[hr]"
Maradeurs Map,http://marmap.rusff.ru/login.php,http://marmap.rusff.ru/viewforum.php?id=10,1,Owl,Owlpost,"[align=center][url=http://marmap.rusff.ru][img]http://funkyimg.com/i/2y6JA.jpg[/img][/url]
[size=16]Нужно [url=http://marmap.rusff.ru]больше[/url] приключений![/size][/align]"
Helm. The Crimson Dawn,http://helm.f-rpg.ru/login.php,http://helm.f-rpg.ru/viewforum.php?id=3,2,Trader,1111,[align=center][url=http://helm.f-rpg.ru/][img]http://funkyimg.com/i/2DReV.jpg[/img][/url][/align]
Tacheles,http://howlongisnow.rusff.ru/login.php,http://howlongisnow.rusff.ru/viewforum.php?id=12,1,der Bär,BhwId1Bp,[align=center][url=http://howlongisnow.rusff.ru/][img]http://funkyimg.com/i/2FbTA.jpg[/img][/url][/align]
Последний Рай,http://wolves.roleforum.ru/login.php,http://wolves.roleforum.ru/viewforum.php?id=14,2,Другие миры,1111,“[quote][align=center][url=http://wolves.roleforum.ru][img]http://s5.uploads.ru/R6svk.jpg[/img][/url] -------------------------------------  [url=http://wolves.roleforum.ru/viewforum.php?id=9][О них поет ветер][/url] | [url=http://wolves.roleforum.ru/viewtopic.php?id=451][Стаи и группировки][/url][/align][/quote]”
